[
  {
    "body": {
      "data": {
        "type": "locations",
        "attributes": {
          "name": "New channel 123"
        }
      }
    },
    "method": "PATCH",
    "request": true
  },
  {
    "body": {
      "data": {
        "type": "locations",
        "id":1,
        "attributes": {
          "name": "New channel 123"
        }
      }
    },
    "method": "PATCH",
    "request": true
  },
  {
    "body": {
      "data": {
        "type": "locations",
        "attributes": {
          "name": "New channel 123"
        }
      }
    },
    "method": "PATCH",
    "request": true
  }
]